<svg width="16" height="17" viewBox="0 0 16 17" fill="none" xmlns="http://www.w3.org/2000/svg">
<path d="M14.25 2.15625H12.2188V1.375C12.2188 1.25068 12.1694 1.13145 12.0815 1.04354C11.9935 0.955636 11.8743 0.90625 11.75 0.90625C11.6257 0.90625 11.5065 0.955636 11.4185 1.04354C11.3306 1.13145 11.2812 1.25068 11.2812 1.375V2.15625H4.71875V1.375C4.71875 1.25068 4.66936 1.13145 4.58146 1.04354C4.49355 0.955636 4.37432 0.90625 4.25 0.90625C4.12568 0.90625 4.00645 0.955636 3.91854 1.04354C3.83064 1.13145 3.78125 1.25068 3.78125 1.375V2.15625H1.75C1.45992 2.15625 1.18172 2.27148 0.976602 2.4766C0.771484 2.68172 0.65625 2.95992 0.65625 3.25V15.75C0.65625 16.0401 0.771484 16.3183 0.976602 16.5234C1.18172 16.7285 1.45992 16.8438 1.75 16.8438H14.25C14.5401 16.8438 14.8183 16.7285 15.0234 16.5234C15.2285 16.3183 15.3438 16.0401 15.3438 15.75V3.25C15.3438 2.95992 15.2285 2.68172 15.0234 2.4766C14.8183 2.27148 14.5401 2.15625 14.25 2.15625ZM14.4062 15.75C14.4062 15.7914 14.3898 15.8312 14.3605 15.8605C14.3312 15.8898 14.2914 15.9062 14.25 15.9062H1.75C1.70856 15.9062 1.66882 15.8898 1.63951 15.8605C1.61021 15.8312 1.59375 15.7914 1.59375 15.75V6.84375H14.4062V15.75ZM14.4062 5.90625H1.59375V3.25C1.59375 3.20856 1.61021 3.16882 1.63951 3.13951C1.66882 3.11021 1.70856 3.09375 1.75 3.09375H3.78125V3.875C3.78125 3.99932 3.83064 4.11855 3.91854 4.20646C4.00645 4.29436 4.12568 4.34375 4.25 4.34375C4.37432 4.34375 4.49355 4.29436 4.58146 4.20646C4.66936 4.11855 4.71875 3.99932 4.71875 3.875V3.09375H11.2812V3.875C11.2812 3.99932 11.3306 4.11855 11.4185 4.20646C11.5065 4.29436 11.6257 4.34375 11.75 4.34375C11.8743 4.34375 11.9935 4.29436 12.0815 4.20646C12.1694 4.11855 12.2188 3.99932 12.2188 3.875V3.09375H14.25C14.2914 3.09375 14.3312 3.11021 14.3605 3.13951C14.3898 3.16882 14.4062 3.20856 14.4062 3.25V5.90625ZM5.34375 11.375C5.34375 11.2507 5.39314 11.1315 5.48104 11.0435C5.56895 10.9556 5.68818 10.9062 5.8125 10.9062H7.53125V9.1875C7.53125 9.06318 7.58064 8.94395 7.66854 8.85604C7.75645 8.76814 7.87568 8.71875 8 8.71875C8.12432 8.71875 8.24355 8.76814 8.33146 8.85604C8.41936 8.94395 8.46875 9.06318 8.46875 9.1875V10.9062H10.1875C10.3118 10.9062 10.431 10.9556 10.519 11.0435C10.6069 11.1315 10.6562 11.2507 10.6562 11.375C10.6562 11.4993 10.6069 11.6185 10.519 11.7065C10.431 11.7944 10.3118 11.8438 10.1875 11.8438H8.46875V13.5625C8.46875 13.6868 8.41936 13.806 8.33146 13.894C8.24355 13.9819 8.12432 14.0312 8 14.0312C7.87568 14.0312 7.75645 13.9819 7.66854 13.894C7.58064 13.806 7.53125 13.6868 7.53125 13.5625V11.8438H5.8125C5.68818 11.8438 5.56895 11.7944 5.48104 11.7065C5.39314 11.6185 5.34375 11.4993 5.34375 11.375V11.375Z" fill="white"/>
</svg>
