<svg width="28" height="28" viewBox="0 0 28 28" fill="none" xmlns="http://www.w3.org/2000/svg">
<circle cx="14" cy="14" r="13.5" fill="white" stroke="#53B2E8"/>
<path d="M20.2507 9.6596L14.0032 15.7496L7.75571 9.6596C7.64409 9.55057 7.49424 9.48953 7.33821 9.48953C7.18217 9.48953 7.03233 9.55057 6.92071 9.6596C6.86666 9.71255 6.82372 9.77576 6.79441 9.84552C6.7651 9.91528 6.75 9.99018 6.75 10.0658C6.75 10.1415 6.7651 10.2164 6.79441 10.2862C6.82372 10.3559 6.86666 10.4191 6.92071 10.4721L13.567 16.9521C13.6837 17.0659 13.8402 17.1295 14.0032 17.1295C14.1662 17.1295 14.3227 17.0659 14.4395 16.9521L21.0857 10.4733C21.1401 10.4204 21.1834 10.357 21.2129 10.287C21.2425 10.217 21.2577 10.1418 21.2577 10.0658C21.2577 9.98988 21.2425 9.91468 21.2129 9.84469C21.1834 9.7747 21.1401 9.71134 21.0857 9.65835C20.9741 9.54932 20.8242 9.48828 20.6682 9.48828C20.5122 9.48828 20.3623 9.54932 20.2507 9.65835V9.6596Z" fill="#53B2E8"/>
</svg>
