<svg width="19" height="19" viewBox="0 0 19 19" fill="none" xmlns="http://www.w3.org/2000/svg">
<path d="M13.3594 16.9219H5.64062C4.00781 16.9219 2.67188 15.5859 2.67188 13.9531V6.23438C2.67188 4.60156 4.00781 3.26562 5.64062 3.26562H13.3594C14.9922 3.26562 16.3281 4.60156 16.3281 6.23438V13.9531C16.3281 15.5859 14.9922 16.9219 13.3594 16.9219Z" fill="url(#paint0_radial_13145_43575)"/>
<path d="M9.5 5.9375C10.8656 5.9375 11.0141 5.9375 11.5484 5.96719C12.0531 5.99688 12.3203 6.08594 12.4984 6.14531C12.7359 6.23438 12.9141 6.35312 13.0922 6.53125C13.2703 6.70938 13.3891 6.8875 13.4781 7.125C13.5375 7.30312 13.6266 7.57031 13.6562 8.075C13.6562 8.57969 13.6562 8.72813 13.6562 10.0938C13.6562 11.4594 13.6562 11.6078 13.6266 12.1422C13.5969 12.6469 13.5078 12.9141 13.4484 13.0922C13.3594 13.3297 13.2406 13.5078 13.0625 13.6859C12.8844 13.8641 12.7063 13.9828 12.4688 14.0719C12.2906 14.1313 12.0234 14.2203 11.5187 14.25C11.0141 14.25 10.8656 14.25 9.5 14.25C8.13438 14.25 7.98594 14.25 7.45156 14.2203C6.94688 14.1906 6.67969 14.1016 6.50156 14.0422C6.26406 13.9531 6.08594 13.8344 5.90781 13.6562C5.72969 13.4781 5.61094 13.3 5.52188 13.0625C5.4625 12.8844 5.37344 12.6172 5.34375 12.1125C5.34375 11.6078 5.34375 11.4594 5.34375 10.0938C5.34375 8.72813 5.34375 8.57969 5.37344 8.04531C5.40313 7.54063 5.49219 7.27344 5.55156 7.09531C5.64063 6.85781 5.75937 6.67969 5.9375 6.50156C6.11563 6.32344 6.29375 6.20469 6.53125 6.11563C6.70937 6.05625 6.97656 5.96719 7.48125 5.9375C7.98594 5.9375 8.13438 5.9375 9.5 5.9375ZM9.5 5.04688C8.13438 5.04688 7.95625 5.04688 7.42188 5.07656C6.8875 5.10625 6.53125 5.19531 6.20469 5.31406C5.87812 5.43281 5.58125 5.61094 5.31406 5.90781C5.04687 6.20469 4.86875 6.47187 4.72031 6.79844C4.60156 7.125 4.5125 7.48125 4.48281 8.01562C4.45313 8.55 4.45312 8.72813 4.45312 10.0938C4.45312 11.4594 4.45313 11.6375 4.48281 12.1719C4.5125 12.7063 4.60156 13.0625 4.72031 13.3891C4.83906 13.7156 5.01719 14.0125 5.31406 14.2797C5.58125 14.5469 5.87812 14.725 6.20469 14.8734C6.53125 14.9922 6.8875 15.0813 7.42188 15.1109C7.95625 15.1406 8.13438 15.1406 9.5 15.1406C10.8656 15.1406 11.0437 15.1406 11.5781 15.1109C12.1125 15.0813 12.4688 14.9922 12.7953 14.8734C13.1219 14.7547 13.4187 14.5766 13.6859 14.2797C13.9531 14.0125 14.1312 13.7156 14.2797 13.3891C14.3984 13.0625 14.4875 12.7063 14.5172 12.1719C14.5469 11.6375 14.5469 11.4594 14.5469 10.0938C14.5469 8.72813 14.5469 8.55 14.5172 8.01562C14.4875 7.48125 14.3984 7.125 14.2797 6.79844C14.1609 6.47187 13.9828 6.175 13.6859 5.90781C13.3891 5.64062 13.1219 5.4625 12.7953 5.31406C12.4688 5.19531 12.1125 5.10625 11.5781 5.07656C11.0437 5.04688 10.8656 5.04688 9.5 5.04688Z" fill="white"/>
<path d="M9.5 7.42188C8.01562 7.42188 6.82812 8.60938 6.82812 10.0938C6.82812 11.5781 8.01562 12.7656 9.5 12.7656C10.9844 12.7656 12.1719 11.5781 12.1719 10.0938C12.1719 8.60938 10.9844 7.42188 9.5 7.42188ZM9.5 11.875C8.52031 11.875 7.71875 11.0734 7.71875 10.0938C7.71875 9.11406 8.52031 8.3125 9.5 8.3125C10.4797 8.3125 11.2812 9.11406 11.2812 10.0938C11.2812 11.0734 10.4797 11.875 9.5 11.875Z" fill="white"/>
<path d="M12.1719 8.01562C12.4998 8.01562 12.7656 7.74979 12.7656 7.42188C12.7656 7.09396 12.4998 6.82812 12.1719 6.82812C11.844 6.82812 11.5781 7.09396 11.5781 7.42188C11.5781 7.74979 11.844 8.01562 12.1719 8.01562Z" fill="white"/>
<defs>
<radialGradient id="paint0_radial_13145_43575" cx="0" cy="0" r="1" gradientUnits="userSpaceOnUse" gradientTransform="translate(5.49484 19.6815) rotate(-49.945) scale(20.676 13.6583)">
<stop offset="0.073" stop-color="#EACC7B"/>
<stop offset="0.184" stop-color="#ECAA59"/>
<stop offset="0.307" stop-color="#EF802E"/>
<stop offset="0.358" stop-color="#EF6D3A"/>
<stop offset="0.46" stop-color="#F04B50"/>
<stop offset="0.516" stop-color="#F03E58"/>
<stop offset="0.689" stop-color="#DB359E"/>
<stop offset="0.724" stop-color="#CE37A4"/>
<stop offset="0.789" stop-color="#AC3CB4"/>
<stop offset="0.877" stop-color="#7544CF"/>
<stop offset="0.98" stop-color="#2B4FF2"/>
</radialGradient>
</defs>
</svg>
