<svg width="17" height="13" viewBox="0 0 17 13" fill="none" xmlns="http://www.w3.org/2000/svg">
<path d="M0.875 6.375C0.875 6.375 3.875 1.125 8.375 1.125C12.875 1.125 15.875 6.375 15.875 6.375C15.875 6.375 12.875 11.625 8.375 11.625C3.875 11.625 0.875 6.375 0.875 6.375Z" stroke="#C5CED6" stroke-miterlimit="10" stroke-linecap="square"/>
<path d="M8.375 8.625C9.61764 8.625 10.625 7.61764 10.625 6.375C10.625 5.13236 9.61764 4.125 8.375 4.125C7.13236 4.125 6.125 5.13236 6.125 6.375C6.125 7.61764 7.13236 8.625 8.375 8.625Z" stroke="#C5CED6" stroke-miterlimit="10" stroke-linecap="square"/>
</svg>
