<svg width="26" height="26" viewBox="0 0 26 26" fill="none" xmlns="http://www.w3.org/2000/svg">
<circle cx="13" cy="13" r="12.5" fill="white" stroke="#53B2E8"/>
<path d="M10 12.3327L14.6667 9.66602" stroke="#53B2E8" stroke-miterlimit="10"/>
<path d="M10 14.334L14.6667 17.0007" stroke="#53B2E8" stroke-miterlimit="10"/>
<path d="M8.33268 14.9993C9.25316 14.9993 9.99935 14.2532 9.99935 13.3327C9.99935 12.4122 9.25316 11.666 8.33268 11.666C7.41221 11.666 6.66602 12.4122 6.66602 13.3327C6.66602 14.2532 7.41221 14.9993 8.33268 14.9993Z" stroke="#53B2E8" stroke-miterlimit="10" stroke-linecap="square"/>
<path d="M16.3327 10.3333C17.2532 10.3333 17.9993 9.58714 17.9993 8.66667C17.9993 7.74619 17.2532 7 16.3327 7C15.4122 7 14.666 7.74619 14.666 8.66667C14.666 9.58714 15.4122 10.3333 16.3327 10.3333Z" stroke="#53B2E8" stroke-miterlimit="10" stroke-linecap="square"/>
<path d="M16.5241 19.1908C17.4446 19.1908 18.1908 18.4446 18.1908 17.5241C18.1908 16.6036 17.4446 15.8574 16.5241 15.8574C15.6036 15.8574 14.8574 16.6036 14.8574 17.5241C14.8574 18.4446 15.6036 19.1908 16.5241 19.1908Z" stroke="#53B2E8" stroke-miterlimit="10" stroke-linecap="square"/>
</svg>
